<?xml version="1.0" encoding="utf-8"?>
<!-- Generator: Adobe Illustrator 20.1.0, SVG Export Plug-In . SVG Version: 6.00 Build 0)  -->
<svg version="1.1" id="Capa_1" xmlns="http://www.w3.org/2000/svg" xmlns:xlink="http://www.w3.org/1999/xlink" x="0px" y="0px"
	 viewBox="0 0 728.5 200" style="enable-background:new 0 0 728.5 200;" xml:space="preserve">
<style type="text/css">
	.st0{fill:#F07662;}
</style>
<path class="st0" d="M101.6,189.9c-14.4,0-28.7-3.5-41.5-10l-49.2,12.9c-0.3,0.1-0.5,0.1-0.8,0.1c-0.8,0-1.7-0.4-2.3-1
	c-0.8-0.8-1.1-2-0.7-3.1l15-45c-7.9-13.8-12.1-29.5-12.1-45.4c0-50.4,41.1-90.9,91.5-90.9V7L633,7.6c49.5,0,90,40.5,90,90v2.9
	c0,49.5-40.5,89.5-90,89.5H101.6L101.6,189.9z"/>
</svg>
